{
    "id": "none",
    "content": "<h1>帮助信息第一章：忠贞之夜</h1><p>你是一个普通的男生，在一个周五的晚上出去寻找妹子玩。<br>在选项上，你可以自由的选择，也可以掷骰子<br>和图片版本不一样的是，程序版本一般不会告诉你你选了这个选项会被要求什么。因此，大胆的选择你的路线吧！<br>每个选择都会影响你的sissy，alpha，slut数值，这会影响到之后的选项，也可以影响到你未来的技能系统。</p><p>我需要什么道具？</p><p>一个直径小于等于3CM的肛塞<br>一个直径小于等于3CM，长度小于等于14CM的假阳具（小型假阳具）<br>一个直径属于三到五CM之间，长度属于14到18CM之间的假阳具（中型假阳具）<br>第一章中，在除了“回家路上”使用中型假阳具外，其余地方使用小型假阳具</p>"
}