{
    "header": "小说-从求婚的那天开始",
    "content": "<h6>来这个新房子，看看不一样的我吧”一句简短的话，我决定把它就作为表白的情书好了。和她已经交往了很久了，虽然她也知道我喜欢SM的事情，但从来没有正式谈论过这个问题。也找不到一个很好的时机来说这个话。既然说不出口，就以行动的方式吧。这样也好，说了却不能接受的也有太多太多了。展现在眼前的时候，应该就是最好的说明了吧。我一边想着，一边把小玩具一件一件摆好。玩具的旁边是每个玩具的说明，这样即使对于完全不了解的人，应该也有一个初步认识了吧。然后走到我之前为我自己准备好的一个跪架上，把这条信息发了出去，把自己好好捆在上面，带好了口球、眼罩和耳塞。对外界的感觉已经完全消失了。为了安全这是一个定时锁，她不来，那么2天后我才会被解锁。而她来了的话，钥匙就在桌上。我就彻底的是由她掌控了……</h6><h6>&nbsp;&nbsp;&nbsp; 对于一个被剥夺了感觉，捆绑在跪架上的人，时间总是漫长的。不知道多久之后，随着眼罩被摘下，我又看见了我熟悉的环境：米白色瓷砖铺成的地板，周围是一片暗黄偏红色的壁纸。而在我面前的人，正是我的女朋友。她按照我放在旁边的说明解下了我的耳塞。</h6><h6>&nbsp;&nbsp;&nbsp; “你还真的是大胆啊，如果我没有来，你是不是就死在这里了啊？”</h6><h6>&nbsp;&nbsp;&nbsp; “呜～”戴着口球的我只能这样回应她了。</h6><h6>&nbsp;&nbsp;&nbsp; “之前上网查的时候，我就大概对这个有了些了解，但没想到你会以这种方式求婚呢。我接受了！”，她一边说着，一边把我从跪架上弄下来，“不过我还是不太懂这些玩具是什么，好多网上也没有资料。你给我说明下吧。”</h6><h6>&nbsp;&nbsp;&nbsp; “呜呜～”我乖巧的鸭子坐在地上，用手指了指口球。毕竟这个也是有锁的。</h6><h6>&nbsp;&nbsp;&nbsp; “哦，还有这个”，她拿出我准备好的钥匙并摘下了口球“现在走吧，从大厅开始吧”</h6><h6>&nbsp;&nbsp;&nbsp; 走下楼梯，这是一个在郊区的三层小别墅。人并不是很多，但周围生活设施还算齐全。是一个很好的SM场所。外人看不出来，而且也没有多少。整体装修的时候，所以家具实际上都与SM有关，但又都可以隐藏起来。现在想想，我真是个天才呢！</h6><h6>&nbsp;&nbsp;&nbsp; 不知不觉，以及到了1楼了。我在大厅里面把各种小玩具平摊开来，一一解释完那些网上常见的之后，拿出了在桌子上面摆放的一个金属质项圈，对她说：“这个项圈是我特制的，和训练狗的电击项圈一样，可以远程遥控来发出声音、震动以及电击。不过这个是可以联网的，我已经设好了在家的网络，只要我在家，随时都可以接受指令。也可以实时通话，或者……”边说着，我便手捧着项圈，递给她。</h6><h6>&nbsp;&nbsp;&nbsp; “主人，请给喵戴上这个，这样在实践中学习不是更好吗？”</h6><h6>&nbsp;&nbsp;&nbsp; “那好，然后遥控呢？”</h6><h6>&nbsp;&nbsp;&nbsp; “主人连上这里的WiFi，然后扫这个二维码就好”我又乖巧的跪坐下来，举起旁边的一个二维码说道。</h6><h6>&nbsp;&nbsp;&nbsp; 她打开了这个应用，这里面就是能控制所有家里以及我身上的这些装备的终端了。小到这个项圈大到阁楼里面的半自动监狱。只要在联网的地方，都可以远程控制。以这个项圈为例，里面包含了实时通话，发出蜂鸣这些以外，最让我得意的是禁言功能。通过语音识别，可以设置不允许说话，不允许说人话以及只允许说固定的词等功能。如果违反的话，一是可以激活项圈的震动禁言，电击惩罚功能，二则是和其他联网的SM设备联动，惩罚项圈的佩戴者。</h6><h6>&nbsp;&nbsp;&nbsp; “哇哦，这个功能真的是不少啊！这个贞操带是用来干嘛的呢？”她只是初步了解了SM是什么，对于这些道具，很明显还是缺乏经验</h6><h6>&nbsp;&nbsp;&nbsp; 我拿起放在旁边的一个纯金属制成的贞操带，这个是我通过先进的3D打印做出来的，内部自然也是嵌入了很多电子零件。除了为了安全保留的钥匙开锁外，电子开锁、电击、强水流清洗等功能，可以说是很现代化了。我现在穿的是一件水手服，于是我脱下里面的胖次，掀起裙子对我的女朋友，不应该是主人，说：“主人这个就是贞操锁了，用来控制和惩罚发情的喵的性交和自慰的。请主人给满脑子色情的喵锁上，让喵下面每天都乖乖的。”</h6><h6>&nbsp;&nbsp;&nbsp; “真的是色情啊”，说着主人为我穿上了这个贞操锁，“看起来也不用穿内裤了呢”</h6><h6>&nbsp;&nbsp;&nbsp; “是的呢主人！那么，那么这样的话，主人同意了喵的求婚请求了对吗？”</h6><h6>&nbsp;&nbsp;&nbsp; “嗯。”，主人摸了摸喵的头，“看网上说的，你就是我的小猫奴了对吗？”</h6><h6>&nbsp;&nbsp;&nbsp; “是的呢主人！！！主人要不要再去别处转转，还是去吃饭呢？”</h6><h6>&nbsp;&nbsp;&nbsp; “先吃饭吧，不早了呢。”</h6>",
    "footer": "<a  class=\"modal-close waves-effect waves-green btn-flat\" href=\"#!\">关闭</a><a  class=\"modal-close waves-effect waves-green btn-flat\" onclick=\"noval('0/0')\">阅读完了</a>"
  }
