{
    "header": "小说-从求婚的那天开始",
    "content": "<h6>走到二楼，主人把喵拉到喵的书房，站在喵的面前说：“你去把刑具安好，给我找几个鞭子去。”喵不敢有任何怠慢，立刻把书桌拉开，将其变为一个类似欧洲颈手枷市众的鞭打刑具。这个能让我的屁股被迫撅的很高，而头和手却完全不能挣扎，也看不见自己的后面变成了什么样子。搭好之后，喵把鞭子从床下的收纳柜里面拿了出来。这里有准备几个散鞭，马鞭，几个长度与宽度不同的戒尺，以及这里最痛苦的电线鞭。由几个很粗的纯铜电线组成。同时喵还在其中加入了几根铁丝，让其也有了一定的韧性。抽打在人的身上，虽然痕迹只有一条，但痛苦却是散鞭之类不能比的。喵感觉一只奴隶竟然连主人不能吃都不知道，一定是一个很不称职坏奴隶。因而在把鞭子在地上排列好之后，跪在地上，双手捧着这个电线鞭 </h6><h6>&nbsp;&nbsp; &nbsp;“请主人狠狠惩罚无能的下贱的坏猫咪吧！” </h6><h6>&nbsp;&nbsp; &nbsp;主人看了看喵递上的电线，拿起来。先是在手里掂了掂分量，然后轻轻的在手上打了两下，貌似有一点思考的样子，之后便把喵捆绑在了刑具上。带上了眼罩，耳朵里也塞上了耳塞。现在喵的世界里只有一片黑暗和寂静。等待着，等待着被可怕的电线把自己不听话的屁股打开花…… </h6><h6>&nbsp;&nbsp; &nbsp;喵感觉到了屁股上鞭子轻轻的接触了，然后又是鞭子离开屁股的感觉。这是鞭子要下来了。随后，屁股后面就被狠狠的抽了一鞭。不过，难道是主人手下留情了？并没有像自己使用打屁股机时电线那种每抽一鞭都会钻心的疼痛，而且马上被抽的地方就会如同被热水烫了一样热。还没来得及细想，第二鞭，第三鞭。很快，喵就忍不住喊出来了。鞭子也随着这个喊叫声暂时迟疑了一下，然后耳塞被摘下，主人用耳语的声音说着： </h6><h6>&nbsp;&nbsp; &nbsp;“啊啦，这只坏猫猫不是自己请求惩罚的吗？明明只是用的马鞭而已。还有30鞭哦。不过……”，主人的声音远了一些，之后又耳语说，“我已经把你项圈禁止喊叫的功能打开了哦，不知道会发生什么呢。而且，接下来每次喊叫，就再加十鞭哦！” </h6><h6>&nbsp;&nbsp; &nbsp;耳塞又被带上，而恐惧感也充满了喵的内心。项圈的电击能力在禁言模式下，如果2分钟超过三次违反规定的话，电击的强度足以电到喵直接失禁。还有至少30鞭要打，越想越感觉可怕，但又想到这每一鞭都是主人打的。喵的下面竟然又硬了，甚至还有点流水。 </h6><h6>&nbsp;&nbsp; &nbsp;又是感觉到鞭子先轻轻贴近屁股的感觉，接下来就是重重的一鞭。疼痛感马上从屁股那里传到了喵的心里，紧接着主人没有给喵任何停下来思考的时间，三鞭狠狠的不间断的打在了喵的屁股上。在剧烈的疼痛下，感觉到了眼泪都出来了。又想到如果喊出来不但要加10鞭，还要被电击，只敢咬紧牙，连气都不敢出，生怕喊出来。 </h6><h6>&nbsp;&nbsp; &nbsp;就在这时，鞭子却稍稍停了一下。难道是主人打算宽恕喵了？喵赶快趁着这个时间赶快喘了喘气。不过主人貌似不是这么想的，趁喵刚吸气，一鞭子重重的打在了喵的屁股上。伴随着的，还有喵因为没有意料到而喊出来的声音。紧接着，项圈长长的滴了一声，这是在惩罚之前的提示音。然后是脖子上如同被重锤打下一般的剧痛。喉咙无意识的嘶哑的像喊非喊的发出了哀嚎。项圈滴滴了两下，提示惩罚停止了。仅仅是第一次的警告性质的惩罚已经让喵浑身颤抖了，耳罩被摘下，主人耳语着对喵说：“本来已经打了8鞭了，不过，现在还有32鞭哦！” </h6><h6>&nbsp;&nbsp; &nbsp;耳罩又被带上，这回没有再像之前那样先轻轻的瞄准一下，而是直接噼噼啪啪的打了下来。又是一个停歇，这回喵连气都不敢喘了。突然耳罩却被摘下，主人这回并没有对着我的耳朵，而是紧贴着喵的脖子，对着项圈喊了一声。我还没明白过来主人想干嘛，项圈却又滴了一声。主人利用项圈只是监测喵的喉咙处震动来判断喵是否在出声。第二回惩罚比第一回重的多，不但喉咙处先是被重重的电击，然后是持久的电击来保证喵发不出任何声音。贞操锁上则是对喵的马眼，小阴囊予以比项圈上还大很多的电流电击。喵就感觉如同将喵的小阴囊和小阴蒂放在地面上，用沙袋狠狠的往上砸一样。喉咙处却发不出任何声音。在这么强大的刺激下，喵射了。 </h6><h6>&nbsp;&nbsp; &nbsp;“小坏猫的可爱又无用的小肉团竟然被惩罚到射精了诶”，主人摸着喵的脸说着，“这就是你后半生的人生了呢，抖M就是这样的啊。比网上说的可爱多了呢。” </h6><h6>&nbsp;&nbsp; &nbsp;“呜，主人，主人坏喵喵竟然射了，主人我，主人是不是要把喵关进笼子了？”喵虽然忘了还在禁言模式下，不过并没有受到电击。应该是主人把这个关了吧。 </h6><h6>&nbsp;&nbsp; &nbsp;“今天算了吧，你这只小坏猫也该记住主人的喜好了吧。去洗盘子去！” </h6><h6>&nbsp;&nbsp; &nbsp;“谢谢主人！”</h6>",
    "footer": "<a  class=\"modal-close waves-effect waves-green btn-flat\" href=\"#!\">关闭</a><a  class=\"modal-close waves-effect waves-green btn-flat\" onclick=\"noval('0/3')\">阅读完了</a>"
  }
