{
    "U0_0":"陌生人，你好啊",
    "U0_1":"厕所中的玩乐",
    "U0_2":"她的住处",
    "U0_3":"由她主导",
    "U0_4":"开胃菜",
    "U0_5":"暖和起来",
    "U0_6":"主菜",
    "U0_7":"真正的交易",
    "U0_8":"射精",
    "U0_9":"打扫干净",
    "U0_10":"沮丧",
    "U0_11":"骑上它，宝贝",
    "U0_12_1":"射在套套里",
    "U0_12_2":"射在你身上",
    "U0_12_3":"骑上穿戴式阳具",
    "U0_13":"开心",
    "U0_14":"回家路上",
    "U0_15":"在那之后",
    "U0_16_0":"家",
    "U0_16_1":"伪娘",
    "U0_16_2":"妹子",
    "U1_0_0":"湿漉漉的梦",
    "U1_0_1":"一个新朋友",
    "U1_0_2":"新生活",
    "U1_1":"公共场合幻想",
    "U1_2":"穿好了",
    "U1_3":"第一根假阳具",
    "U1_4":"给男孩用的性具",
    "U1_5":"发型",
    "U1_6":"柜台调情",
    "U1_7":"滚床单",
    "U1_8":"独处时间",
    "U1_9":"莉娅的教学",
    "U1_10":"激烈的爱",
    "U1_11":"精液银行",
    "U1_12":"性具测试",
    "U1_13":"粗暴骑乘",
    "U1_14":"深喉口交",
    "U1_15":"坐下来",
    "U1_16":"问题",
    "U1_17":"被决定的命运",
    "U1_18":"奖励",
    "U1_19":"地铁事件",
    "U1_20":"合作",
    "U1_21":"双重的快乐",
    "U1_22":"同性喷射",
    "U1_23":"做婊子的报应",
    "U1_24":"今天可真够呛",
    "U2_0":"电话",
    "U2_1":"谈话",
    "U2_2":"进来吧",
    "U2_3":"选择一套服装",
    "U2_4":"抽耳光！",
    "U2_5":"打屁股！",
    "U2_6":"锁起来",
    "U2_7":"洗干净",
    "U2_8":"时间到",
    "U2_9":"所有权",
    "U2_10":"派对时间！",
    "U2_11":"喝尿的母狗",
    "U2_12":"在大厅中揉弄",
    "U2_13":"脏衣服",
    "U2_14":"想喝什么吗？",
    "U2_15":"餐厅",
    "U2_16":"洗劫冰箱",
    "U2_17":"灌肠锦标赛",
    "U2_18":"沙发二重奏",
    "U2_19":"真人快打",
    "U2_20":"入场费",
    "U2_21":"湿漉漉的事故",
    "U2_22":"猜谜游戏",
    "U2_23":"马桶play",
    "U2_24":"派对狂人",
    "U2_25":"嘿，我是安德莉亚",
    "U2_26":"她在那儿",
    "U2_27":"加入狂欢",
    "U2_28":"啪啪啪",
    "U2_29":"欣赏风景",
    "U2_30":"清理干净",
    "U2_31":"泳池派对",
    "U2_e0":"裁判",
    "U2_e1":"堆叠",
    "U2_e2":"是时候休息了",
    "U3_1":"酸痛的清晨",
    "U3_2":"宿醉",
    "U3_3":"早上好",
    "U3_4":"坏劳拉",
    "U3_5":"清晨散步",
    "U3_6":"乔伊的礼物",
    "U3_7":"总结",
    "U3_8":"贞操锁",
    "U3_9":"道歉、接受",
    "U3_10":"新工作",
    "U3_11":"下班后",
    "U3_12":"热水澡",
    "U3_13":"淋浴",
    "U3_14":"插进来",
    "U3_15":"深度清洁",
    "U3_16":"轮到我了",
    "U3_17":"想要个孩子吗",
    "U3_18":"问题",
    "U3_19":"长途步行",
    "U3_20":"刻薄的女孩",
    "U3_21":"乔迁之礼",
    "U4_1":"孤独的夜晚",
    "U4_2":"快乐生活",
    "U4_3":"仰卧起坐",
    "U4_4":"新室友",
    "U4_5":"俯卧撑",
    "U4_6":"就偷看一眼/女神",
    "U4_7":"分开他们",
    "U4_8":"菊穴力量",
    "U4_9":"自重",
    "U4_10":"做好准备",
    "U4_11":"更衣室",
    "U4_12":"即刻报应",
    "U4_13":"服软",
    "U4_14":"聪明的婊子",
    "U4_15":"穿刺",
    "U4_16":"服侍她们",
    "U4_17":"堆叠",
    "U4_18":"女孩们的掌上明珠",
    "U4_19":"骑行回家"
}