{
    "P0":{
        "name":"男士四角内裤",
        "reveal":"<p>啊？那可不是什么女性服装。不过好吧</p><p>5￥，alpha&gt;-6</p><p>-4性具长度，-1性具直径</p><p>BUFF代码P0</p>",
        "canoff":"yes"
    },
    "S0":{
        "name":"短袜",
        "reveal":"<p>嘿，我喜欢那双印着Hello kitty的！</p><p>5￥</p><p>根据穿着方式slut+0～3</p><p>BUFF代码S0</p>",
        "canoff":"yes"
    },
    "D0":{
        "name":"裤子",
        "reveal":"<p>唉，这可真是个让人不愉快的惊喜。</p><p>25￥,alpha&gt;-8</p><p>alpha+3,加1攻方卡片可重复次数</p><p>BUFF代码D0</p>",
        "canoff":"yes"
    },
    "U0":{
        "name":"男式衬衫",
        "reveal":"<p>很好，不过你应该需要女士的</p><p>25￥,alpha&gt;-4</p><p>当你没有穿着下身衣物时，将体位转换为站姿；根据穿着方式slut+0～1</p><p>BUFF代码U0</p>",
        "canoff":"yes"
    },
    "P1":{
        "name":"平角内裤",
        "reveal":"<p>好吧，你总得从什么地方开始尝试</p><p>10￥,sissy&gt;10</p><p>你的肉棒可以从内裤里面伸出多长，就可以为你的性具增加同样的长度</p><p>BUFF代码P1</p>",
        "canoff":"yes"
    },
    "S1":{
        "name":"中筒袜",
        "reveal":"<p>学生妹风格，我喜欢你这种发展</p><p>10￥,sissy&gt;10</p><p>肛交时长延长5min</p><p>BUFF代码S1</p>",
        "canoff":"yes"
    },
    "D1":{
        "name":"热裤",
        "reveal":"<p>你肯定会有很高的回头率的</p><p>10￥，alpha<0</p><p>肛交BPM+15，口交时必须尝试深喉</p><p>BUFF代码D1</p>",
        "canoff":"yes"
    },
    "U1":{
        "name":"T恤",
        "reveal":"<p>嘿，他们贩卖上面写着“母狗”字样的款式诶</p><p>15￥</p><p>女款sissy+1男款alpha+1</p><p>BUFF代码U1</p>",
        "canoff":"yes"
    },
    "P2":{
        "name":"三角胖次",
        "reveal":"<p>胖次永远不会嫌多</p><p>15￥,sissy &gt; 30</p><p>根据款式sissy+1～3</p><p>BUFF代码P2</p>",
        "canoff":"yes"
    },
    "S2":{
        "name":"裤袜",
        "reveal":"<p>你知道你这样穿没办法隐藏起你穿了丝袜的事实对吧</p><p>15￥</p><p>强奸时，BPM+30，插入到底；物品移除时slut+3</p><p>BUFF代码S2</p>",
        "canoff":"yes"
    },
    "D2":{
        "name":"长裙",
        "reveal":"<p>真可惜他们没有更短的款式</p><p>25￥sissy &gt; 10 slut &gt; 10</p><p>加1受方卡片可重复次数,sissy+3,slut+1,alpha-1</p><p>BUFF代码D2</p>",
        "canoff":"yes"
    },
    "U2":{
        "name":"连帽衫",
        "reveal":"<p>这个帽子或许能派上用场</p><p>25￥sissy &gt; 10 slut &gt; 10</p><p>口交后要戴着口罩和深喉口塞出门10分钟,根据款式alpha+2/sissy+1</p><p>BUFF代码U2</p>",
        "canoff":"yes"
    },
    "DI0":{
        "name":"小号假阳具",
        "reveal":"<p>好吧，你总得从什么地方开始尝试</p><p>sissy+1</p><p>BUFF代码DI0</p>",
        "canoff":"yes"
    },
    "DI1":{
        "name":"中号假阳具",
        "reveal":"<p>女孩子忠实的朋友，从不让你失望</p><p>sissy+1</p><p>BUFF代码DI1</p>",
        "canoff":"yes"
    },
    "GS0":{
        "name":"小号肛塞",
        "reveal":"<p>好吧，你总得从什么地方开始尝试</p><p>sissy+1</p><p>BUFF代码GS0</p>",
        "canoff":"yes"
    },
    "GS1":{
        "name":"中号肛塞",
        "reveal":"<p>女孩子忠实的朋友，从不让你失望</p><p>sissy &gt; 10 slut &gt; 10 </p><p>slut+2如果BPM低于120BPM，则改为120BPM</p><p>BUFF代码GS1</p>",
        "canoff":"yes"
    },
    "GS2":{
        "name":"镶钻肛塞",
        "reveal":"<p>让菊穴看起来闪闪发光！</p><p>第四章纪念品，在任何菊穴空闲的时间，塞好一个镶钻的肛塞作为后面的装饰品</p><p>sissy+1</p><p>BUFF代码GS2</p>",
        "canoff":"yes"
    },
    "LZ0":{
        "name":"小号拉珠",
        "reveal":"<p>这玩意挺有趣的，但明显假阳具更好</p><p>sissy+1</p><p>BUFF代码LZ0</p>",
        "canoff":"yes"
    },
    "LZ1":{
        "name":"中号拉珠",
        "reveal":"<p>我要使劲的把他们从你后面拉出来</p><p>slut+2sissy+1</p><p>BUFF代码LZ1</p>",
        "canoff":"yes"
    },
    "U2cat_maid":{
        "name":"女仆猫套装－第三章道具",
        "reveal":"<p>铃铛项圈、猫耳、小虎牙和尾巴，是一只可爱的女仆呢<br>第三章剧情用道具：被日时要保持安静，口交BPM+30<br>BUFF代码U2cat_maid</p>",
        "canoff":"no"
    },
    "U2cat_out":{
        "name":"小野猫套装－第三章道具",
        "reveal":"<p>带着尖刺的项圈彰显了穿着人的野性，是不会乖乖听话的<br>第三章剧情用道具：被日时要喵喵叫，肛交BPM+30<br>BUFF代码U2cat_out</p>",
        "canoff":"no"
    },
    "U2sprit_dark":{
        "name":"暗精灵套装－第三章道具",
        "reveal":"<p>暗色的皮肤彰显了和亮精灵不太一样的外貌。不过其他的如精灵耳朵、长筒靴、绿色紧身连衣短裙倒是都一样。<br>第三章剧情用道具：肛交性具长度+2直径+1时间+5<br>BUFF代码U2sprit_dark</p>",
        "canoff":"no"
    },
    "U2sprit_light":{
        "name":"亮精灵套装－第三章道具",
        "reveal":"<p>金色长发、精灵耳朵、长筒靴、绿色紧身连衣短裙，是常见的精灵呢。<br>第三章剧情用道具：口交性具长度+2直径+1时间+5<br>BUFF代码U2sprit_light</p>",
        "canoff":"no"
    },
    "ZCS":{
        "name":"贞操锁",
        "reveal":"<p>这叫阴蒂，肉棒不会被锁起来<br>sissy+5alpha-1<br>BUFF代码ZCS</p>",
        "canoff":"yes"
    },
    "biaozi":{
        "name":"debuff:说谎的婊子",
        "reveal":"<p>嘿！你这个说谎的婊子竟然和别的女人勾搭！<br>跳过所有主动方卡片，再次获得此buff将结束游戏<br>BUFF代码biaozi</p>",
        "canoff":"yes"
    },
    "SP0":{
        "name":"袜带",
        "reveal":"<p>给大腿上增添一些装饰<br>sissy+2肛交和口交BPM+20<br>BUFF代码SP0</p>",
        "canoff":"yes"
    },
    "U4_spe":{
        "name":"第五章的劈腿提示",
        "reveal":"<p>记得去拉韧带<br><br>BUFF代码U4_spe</p>",
        "canoff":"no"
    }
}