{
    "header": "琳的WTCD",
    "content": "<p>假装，用上了WTCD（然而是最传统的函数调用大法，懒死我得了</p><p>假装是一篇纪录（琳被调教）文稿</p><hr><p>“虽然，三个月没有更新主线小说。但是，很快你们就能看到一个革新性的，能吓到的你们的重大功能更新！”</p><p>琳，确确实实已经咕咕了三个月了</p><p>群友都在想，琳到底这几天在干什么。有人觉得琳最近只是太忙了，在写offer。或者是，单纯的，鸽了。又是号召群友们努力写道具集，又是鼓励大家在写了，在写了。</p><p>一开始大家还积极踊跃投稿。但后来，全体群友一致要求如果琳不更新，那大家就一起拖更（反正都是作者了一起咕啊！雾）</p><p>人民群众的力量是强大的，我们终于迎来了，迎来了……</p><h6>WTCD</h6><p>群友欢呼雀跃，分支小说、编译器（好像是什么1/4编译3/4解释型什么的，听不懂）、玩着琳的玩具店。畅想着未来主线小说能实现的高度……</p><p>主线小说？</p><p>“主线小说不会使用WTCD”</p><p>视角切回到琳。琳一边玩着手机，一边看着突如其来的幸福：她的网站被google选中了！瞬间访问流量大增。琳要出名了！琳太厉害了！晴雪慧的mWatch什么的还不更新，哈哈哈哈这下终于不是我琳咕咕了！</p><p>“WTCD可是我琳在没学编译原理课就做出的成果！不但原生支持MarkDown，有选项时还能转交控制权，持久化包括闭包内的所有函数，以非传统流程控制表示能力……”（都是琳的内心想法）</p><p>琳躺在自己的床上，新买的黑色小裙子下面并没有穿内裤。长长的头发披散着，标示着60小时的WTCD开发。琳有点累了，侧躺着，一手刷着群里的消息，一手自觉的伸向了裙子里面。</p><p>“快来赞美我啊！”，琳就差现在跑到大街上，举着笔记本向每一个人炫耀了。手指悄悄捏着自己的小豆豆，琳并不担心这样会把自己的床和小裙子弄脏，反正有女仆（实际上是伪娘啦！）会帮琳清理一切，“琳超级可爱的还全能的！又有女仆还会打代码！”</p><p>“你最好不要尝试去解决本不应存在的问题”</p><blockquote><blockquote><p>有库了</p><p>event callback</p><p>存到globalThis对象下globalThis已有polyfill</p><p>选项撤销嘛，还可以考虑一下</p></blockquote></blockquote><p><br></p><p>琳气的直接从床上蹦了起来，那可是自己花了好几个晚上通宵查bug、编代码搞出来的巨大成就！琳甩了甩自己的小胳膊，然后一屁股坐回了床上，在群里认真解释自己的WTCD到底有什么必要。</p><p>“可以解决，但是不优雅!”,琳死盯着手机，就好像要把手机是陈志朋，想直接把它捏碎一样；耳根也气的通红，如果不是看着琳握着手机，所有人都会认为琳是刚刚高潮过。</p><p>突然，琳宿舍的门外的门铃响了，是陈志朋。</p><h5>这可是分支小说!在下面选一个分支吧！</h5>",
    "footer": "<a  class=\"modal-close waves-effect waves-green btn-flat\" onclick=\"modal('noval/2/3_2')\">推开门</a><a  class=\"modal-close waves-effect waves-green btn-flat\" onclick=\"modal('noval/2/3_1')\">无视</a><a  class=\"modal-close waves-effect waves-green btn-flat\" href=\"#!\">关闭本页面</a>"
}